<?xml version="1.0" encoding="UTF-8" standalone="no"?>
<!-- Created with Inkscape (http://www.inkscape.org/) -->

<svg
   xmlns:dc="http://purl.org/dc/elements/1.1/"
   xmlns:cc="http://creativecommons.org/ns#"
   xmlns:rdf="http://www.w3.org/1999/02/22-rdf-syntax-ns#"
   xmlns:svg="http://www.w3.org/2000/svg"
   xmlns="http://www.w3.org/2000/svg"
   xmlns:xlink="http://www.w3.org/1999/xlink"
   xmlns:sodipodi="http://sodipodi.sourceforge.net/DTD/sodipodi-0.dtd"
   xmlns:inkscape="http://www.inkscape.org/namespaces/inkscape"
   width="22"
   height="24"
   viewBox="0 0 22 24"
   id="svg4881"
   version="1.1"
   inkscape:version="0.91 r13725"
   sodipodi:docname="key.svg">
  <defs
     id="defs4883" />
  <sodipodi:namedview
     id="base"
     pagecolor="#ffffff"
     bordercolor="#666666"
     borderopacity="1.0"
     inkscape:pageopacity="0.0"
     inkscape:pageshadow="2"
     inkscape:zoom="21.667772"
     inkscape:cx="14"
     inkscape:cy="18.733873"
     inkscape:document-units="px"
     inkscape:current-layer="layer5"
     showgrid="false"
     inkscape:snap-page="false"
     units="px"
     inkscape:showpageshadow="false"
     inkscape:window-width="1920"
     inkscape:window-height="1027"
     inkscape:window-x="1272"
     inkscape:window-y="-8"
     inkscape:window-maximized="1"
     showguides="true"
     inkscape:guide-bbox="true" />
  <metadata
     id="metadata4886">
    <rdf:RDF>
      <cc:Work
         rdf:about="">
        <dc:format>image/svg+xml</dc:format>
        <dc:type
           rdf:resource="http://purl.org/dc/dcmitype/StillImage" />
        <dc:title></dc:title>
      </cc:Work>
    </rdf:RDF>
  </metadata>
  <g
     inkscape:groupmode="layer"
     id="layer3"
     inkscape:label="key"
     transform="translate(0,-1028.3622)"
     style="display:none">
    <path
       style="fill:#0096da;fill-opacity:1;stroke:none;stroke-width:1;stroke-linejoin:bevel;stroke-miterlimit:4;stroke-dasharray:none;stroke-dashoffset:0;stroke-opacity:1"
       d="m 20.080149,1024.7754 a 7.4405594,7.4405594 0 0 0 -7.441407,7.4394 7.4405594,7.4405594 0 0 0 0.828125,3.4043 l -11.1699207,10.9571 c -2.67378613,2.6226 0.6769363,5.8604 3.2441406,3.3437 0.1777786,-0.1769 0.3790223,-0.3706 0.5585938,-0.5488 0.032767,0.051 0.050521,0.1085 0.091797,0.1543 l 1.8769532,2.082 c 0.4075231,0.4522 1.0714508,0.4592 1.4882812,0.016 l 2.9707029,-3.1601 c 0.41683,-0.4436 0.425101,-1.1651 0.01758,-1.6172 l -1.824219,-2.0254 c 2.019987,-1.9785 4.032066,-3.9507 6.06836,-5.9414 a 7.4405594,7.4405594 0 0 0 3.291016,0.7773 7.4405594,7.4405594 0 0 0 7.441406,-7.4414 7.4405594,7.4405594 0 0 0 -7.441406,-7.4394 z"
       id="path4915"
       inkscape:connector-curvature="0" />
  </g>
  <g
     inkscape:groupmode="layer"
     id="layer5"
     inkscape:label="man"
     transform="translate(0,-4)">
    <path
       style="fill:#0096da;fill-opacity:1;stroke:none;stroke-width:1;stroke-linejoin:bevel;stroke-miterlimit:4;stroke-dasharray:none;stroke-dashoffset:0;stroke-opacity:1"
       d="m 10.938512,4.611389 a 5.5278597,5.6663146 0 0 0 -5.5292966,5.666016 5.5278597,5.6663146 0 0 0 3.6152344,5.308594 l -0.21875,0 c -1.1200603,0 -7.83593758,1.870045 -7.83593758,8.71289 l 0,1.179688 c 0,1.12006 0.90142408,2.021484 2.02148438,2.021484 l 15.9628904,0 c 1.12006,0 2.021485,-0.901424 2.021485,-2.021484 l 0,-1.226563 c 0,-6.775372 -6.901425,-8.666015 -8.021485,-8.666015 l -0.09375,0 a 5.5278597,5.6663146 0 0 0 3.605469,-5.308594 5.5278597,5.6663146 0 0 0 -5.527344,-5.666016 z"
       id="path4946"
       inkscape:connector-curvature="0" />
  </g>
</svg>
